{
  "meta": [
    {
      "charset": "utf-8"
    },
    {
      "name": "author",
      "content": "Ma_124, gitlab.com/Ma_124"
    },
    {
      "name": "creator",
      "content": "Ma_124, gitlab.com/Ma_124"
    },
    {
      "name": "generator",
      "content": "Gulp (gitlab.com/Ma_124/pages/blob/master/gulpfile.js) + MarkdownIt + PostHtml + PostCSS"
    },
    {
      "name": "viewport",
      "content": "width=device-width, initial-scale=1"
    }
  ],
  "link": [
    {
      "rel": "stylesheet",
      "href": "style.css",
      "title": "Default Style"
    },
    {
      "rel": "icon",
      "href": "favicon.png"
    },
    {
      "rel": "author",
      "content": "https://gitlab.com/Ma_124"
    }
  ]
}

